; Engine configuration file.
; It's best edited using the editor UI and not directly,
; since the parameters that go here are not all obvious.
;
; Format:
;   [section] ; section goes between []
;   param=value ; assign values to parameters

config_version=5

[application]

config/name="Road Trip Bingo"
run/main_scene="res://main.tscn"
config/features=PackedStringArray("4.3", "Mobile")
boot_splash/bg_color=Color(0, 0, 0, 1)
boot_splash/image="res://icon.png"
config/icon="res://icon.png"

[autoload]

Items="*res://scripts/item_list.gd"
Global="*res://scripts/global.gd"

[display]

window/size/viewport_width=648
window/size/viewport_height=1152
window/handheld/orientation=1

[rendering]

renderer/rendering_method="gl_compatibility"
renderer/rendering_method.mobile="gl_compatibility"
textures/vram_compression/import_etc2_astc=true
environment/defaults/default_clear_color=Color(0.494118, 0.494118, 0.494118, 1)
